{
    "extends": [
        "tslint:all",
        "tslint-config-prettier",
        "tslint-plugin-prettier"
    ],
    "rules": {
        "prettier": true,
        "file-name-casing": [false, "camel-case"],
        "no-implicit-dependencies": [true, "dev"],
        "strict-boolean-expressions": false,
        "eslint-disable member-ordering": false,
        "cyclomatic-complexity": false,
        "increment-decrement": false,
        "newline-before-return": false,
        "no-parameter-properties": false,
        "no-parameter-reassignment": false,
        "no-unused-variable": false,
        "typedef": false,
        "unnecessary-else": false,
        "completed-docs": false,
        "no-any": false,
        "no-unnecessary-qualifier": false,
        "no-use-before-declare": false,
        "no-void-expression": false,
        "prefer-function-over-method": false,
        "strict-comparisons": false,
        "strict-type-predicates": false,
        "no-null-keyword": false,
        "ban": {
            "options": [
                [
                    "describe",
                    "only"
                ],
                [
                    "it",
                    "only"
                ]
            ]
        },
        "max-classes-per-file": false,
        "member-ordering": {
            "options": {
                "order": "statics-first"
            }
        },
        "no-console": {
            "options": [
                "log"
            ]
        },
        "no-switch-case-fall-through": true,
        "switch-default": false,
        "variable-name": {
            "options": [
                "ban-keywords",
                "check-format",
                "allow-leading-underscore",
                "allow-pascal-case"
            ]
        },
        "linebreak-style": false
    }
}